module gitlab.com/otus-go-hw/database

go 1.13

require (
	github.com/cockroachdb/apd v1.1.0 // indirect
	github.com/gofrs/uuid v3.2.0+incompatible // indirect
	github.com/golang/protobuf v1.4.0
	github.com/heetch/confita v0.9.0
	github.com/jackc/fake v0.0.0-20150926172116-812a484cc733 // indirect
	github.com/jackc/pgx v3.6.2+incompatible
	github.com/jmoiron/sqlx v1.2.0
	github.com/konsorten/go-windows-terminal-sequences v1.0.2 // indirect
	github.com/manifoldco/promptui v0.7.0
	github.com/shopspring/decimal v0.0.0-20200419222939-1884f454f8ea // indirect
	github.com/sirupsen/logrus v1.5.0
	github.com/spf13/cobra v1.0.0
	github.com/spf13/pflag v1.0.5
	golang.org/x/sys v0.0.0-20200223170610-d5e6a3e2c0ae // indirect
	google.golang.org/grpc v1.29.1
)
